<?xml version="1.0" encoding="UTF-8"?>
<!DOCTYPE svg PUBLIC "-//W3C//DTD SVG 1.1//EN" "http://www.w3.org/Graphics/SVG/1.1/DTD/svg11.dtd">
<svg version="1.1" xmlns="http://www.w3.org/2000/svg" xmlns:xlink="http://www.w3.org/1999/xlink" x="0" y="0" width="512" height="512" viewBox="0, 0, 512, 512">
  <g id="Background">
    <rect x="0" y="0" width="512" height="512" fill="url(#Gradient_1)"/>
  </g>
  <defs>
    <linearGradient id="Gradient_1" gradientUnits="userSpaceOnUse" x1="0" y1="256" x2="512" y2="256">
      <stop offset="0" stop-color="#000000"/>
      <stop offset="0.903" stop-color="#363535"/>
      <stop offset="1" stop-color="#484848"/>
    </linearGradient>
    <radialGradient id="Gradient_2" gradientUnits="userSpaceOnUse" cx="256" cy="214.286" r="118.021">
      <stop offset="0" stop-color="#919191"/>
      <stop offset="1" stop-color="#131313"/>
    </radialGradient>
    <radialGradient id="Gradient_3" gradientUnits="userSpaceOnUse" cx="292.307" cy="261.124" r="6.39">
      <stop offset="0" stop-color="#919191"/>
      <stop offset="1" stop-color="#131313"/>
    </radialGradient>
    <radialGradient id="Gradient_4" gradientUnits="userSpaceOnUse" cx="252.936" cy="302.839" r="89.081">
      <stop offset="0" stop-color="#919191"/>
      <stop offset="1" stop-color="#131313"/>
    </radialGradient>
  </defs>
  <g id="Ebene_1">
    <path d="M332.196,183.867 L269.48,183.867 L269.48,167.447 C269.48,163.918 266.618,161.056 263.089,161.056 L203.852,161.056 C200.323,161.056 197.461,163.917 197.461,167.447 L197.461,168.102 L161.8,168.102 C160.215,168.102 158.688,168.691 157.513,169.753 L140.083,185.518 C138.744,186.729 137.979,188.452 137.979,190.258 C137.979,192.064 138.744,193.786 140.083,194.998 L157.512,210.762 C158.687,211.824 160.215,212.413 161.799,212.413 L197.461,212.413 L197.461,213.068 C197.461,216.597 200.323,219.459 203.852,219.459 L263.09,219.459 C266.619,219.459 269.481,216.598 269.481,213.068 L269.481,196.649 L332.197,196.649 C348.211,196.649 361.239,209.677 361.239,225.691 C361.239,241.706 348.211,254.734 332.197,254.734 L313.526,254.734 C309.997,254.734 307.135,257.595 307.135,261.125 C307.135,264.654 309.997,267.516 313.526,267.516 L332.196,267.516 C355.258,267.516 374.021,248.753 374.021,225.691 C374.021,202.629 355.258,183.867 332.196,183.867 z M197.46,199.63 L164.261,199.63 L153.897,190.258 L164.261,180.884 L197.46,180.884 L197.46,199.63 z M256.699,206.677 L210.243,206.677 L210.243,206.022 L210.243,174.493 L210.243,173.838 L256.699,173.838 L256.699,206.677 z" fill="url(#Gradient_2)"/>
    <path d="M298.577,259.873 C298.494,259.47 298.372,259.067 298.212,258.678 C298.053,258.294 297.855,257.924 297.625,257.579 C297.388,257.227 297.12,256.902 296.826,256.607 C296.532,256.313 296.206,256.045 295.853,255.808 C295.508,255.578 295.138,255.38 294.754,255.221 C294.365,255.061 293.962,254.939 293.559,254.856 C292.735,254.69 291.885,254.69 291.061,254.856 C290.652,254.939 290.249,255.061 289.866,255.221 C289.476,255.381 289.106,255.578 288.761,255.808 C288.409,256.045 288.083,256.313 287.789,256.607 C287.495,256.902 287.226,257.227 286.997,257.579 C286.767,257.924 286.569,258.295 286.409,258.678 C286.249,259.068 286.128,259.47 286.045,259.873 C285.962,260.288 285.917,260.71 285.917,261.125 C285.917,261.541 285.962,261.963 286.045,262.371 C286.128,262.78 286.25,263.183 286.409,263.566 C286.569,263.956 286.767,264.327 286.997,264.672 C287.226,265.023 287.495,265.349 287.789,265.643 C288.083,265.938 288.409,266.206 288.761,266.436 C289.106,266.666 289.477,266.864 289.866,267.024 C290.25,267.184 290.652,267.305 291.061,267.388 C291.471,267.471 291.892,267.516 292.307,267.516 C292.722,267.516 293.145,267.471 293.559,267.388 C293.962,267.305 294.365,267.183 294.754,267.024 C295.138,266.864 295.509,266.666 295.853,266.436 C296.206,266.206 296.532,265.938 296.826,265.643 C297.12,265.349 297.388,265.023 297.625,264.672 C297.855,264.327 298.053,263.956 298.212,263.566 C298.372,263.183 298.494,262.78 298.577,262.371 C298.66,261.963 298.698,261.541 298.698,261.125 C298.698,260.71 298.659,260.288 298.577,259.873 z" fill="url(#Gradient_3)"/>
    <path d="M339.913,317.003 L322.484,301.239 C321.309,300.176 319.781,299.588 318.197,299.588 L282.536,299.588 L282.536,298.933 C282.536,295.403 279.674,292.542 276.145,292.542 L216.907,292.542 C213.378,292.542 210.516,295.403 210.516,298.933 L210.516,315.352 L200.555,315.352 C187.366,315.352 176.637,304.622 176.637,291.434 C176.637,278.246 187.366,267.516 200.555,267.516 L272.529,267.516 C276.058,267.516 278.92,264.655 278.92,261.125 C278.92,257.595 276.058,254.734 272.529,254.734 L200.555,254.734 C180.318,254.734 163.855,271.198 163.855,291.434 C163.855,311.67 180.319,328.133 200.555,328.133 L210.516,328.133 L210.516,344.553 C210.516,348.082 213.378,350.944 216.907,350.944 L276.145,350.944 C279.674,350.944 282.536,348.083 282.536,344.553 L282.536,343.898 L318.197,343.898 C319.781,343.898 321.309,343.309 322.484,342.247 L339.913,326.482 C341.252,325.271 342.017,323.549 342.017,321.742 C342.017,319.936 341.252,318.215 339.913,317.003 z M269.754,305.978 L269.754,337.507 L269.754,338.162 L223.298,338.162 L223.298,305.324 L269.754,305.324 L269.754,305.978 z M315.736,331.116 L282.536,331.116 L282.536,312.37 L315.735,312.37 L326.099,321.742 L315.736,331.116 z" fill="url(#Gradient_4)"/>
  </g>
</svg>
